…
Use `modelr::crossv_mc`.

``` r
cv_df =
  crossv_mc(nonlin_df, 100) %>%
  mutate(
    train = map(train, as_tibble),
    test = map(test, as_tibble)
  )

cv_df %>% pull(train) %>% .[[100]] %>% as_tibble()
```

    ## # A tibble: 79 × 3
    ##       id      x       y
    ##    <int>  <dbl>   <dbl>
    ##  1     1 0.266   1.11  
    ##  2     2 0.372   0.764 
    ##  3     3 0.573   0.358 
    ##  4     4 0.908  -3.04  
    ##  5     5 0.202   1.33  
    ##  6     6 0.898  -1.99  
    ##  7     7 0.945  -3.27  
    ##  8     8 0.661  -0.615 
    ##  9     9 0.629   0.0878
    ## 10    10 0.0618  0.392 
    ## # … with 69 more rows
…
